{
    "data": {
        "total_used": 44,
        "total_remaining": 2953,
        "products": [
            {
                "product_id": 1,
                "product_code": "time and attendance",
                "product_name": "Time & Attendance",
                "licenses_used": 0,
                "licenses_available": 999,
                "currency": "USD",
                "unit_price": 0.0,
                "amount": 0.0
            },
            {
                "product_id": 2,
                "product_code": "payroll",
                "product_name": "Payroll",
                "licenses_used": 0,
                "licenses_available": 999,
                "currency": "USD",
                "unit_price": 0.0,
                "amount": 0.0
            },
            {
                "product_id": 3,
                "product_code": "time and attendance plus payroll",
                "product_name": "Time and attendance + Payroll",
                "licenses_used": 44,
                "licenses_available": 955,
                "currency": "USD",
                "unit_price": 0.0,
                "amount": 0.0
            }
        ]
    },
    "links": {
        "self": "\/subscriptions\/1\/stats"
    }
}
