{
    "data": [
        {
            "id": 1,
            "user_id": 1,
            "first_name": "Ralph",
            "middle_name": null,
            "last_name": "White",
            "account_name": "RPW Holdings, Inc.",
            "account_id": 1,
            "email": "test+local.ralphperrywhite@example.test",
            "credits": 0.0,
            "billing": {
                "first_name": null,
                "last_name": null,
                "account_name": null,
                "email": null,
                "phone": null,
                "address_1": null,
                "address_2": null,
                "address_3": null,
                "city": null,
                "state": null,
                "country": null,
                "zip_code": null
            },
            "subscriptions": [
                {
                    "id": 1,
                    "user_id": 1,
                    "plan_id": 3,
                    "main_product_id": 3,
                    "billing_period_type": "MONTHLY",
                    "start_date": "2020-04-16",
                    "end_date": "2021-05-26",
                    "free_trial_end_date": "2020-02-25",
                    "days_left": 329,
                    "is_expired": false,
                    "is_trial": true,
                    "status": "ACTIVE",
                    "plan": {
                        "id": 3,
                        "name": "Time and attendance plus Payroll",
                        "main_product_id": 3,
                        "product_combination": [
                            1,
                            2,
                            3
                        ],
                        "main_product": {
                            "id": 3,
                            "name": "Time and attendance + Payroll",
                            "code": "time and attendance plus payroll",
                            "currency": "USD",
                            "price": 0.0
                        },
                        "display": true
                    },
                    "subscription_licenses": [
                        {
                            "id": 1,
                            "units": 999,
                            "currency": "USD",
                            "price": 0.0,
                            "product": {
                                "id": 1,
                                "name": "Time & Attendance",
                                "code": "time and attendance",
                                "currency": "USD",
                                "price": 0.0
                            }
                        },
                        {
                            "id": 2,
                            "units": 999,
                            "currency": "USD",
                            "price": 0.0,
                            "product": {
                                "id": 2,
                                "name": "Payroll",
                                "code": "payroll",
                                "currency": "USD",
                                "price": 0.0
                            }
                        },
                        {
                            "id": 3,
                            "units": 999,
                            "currency": "USD",
                            "price": 0.0,
                            "product": {
                                "id": 3,
                                "name": "Time and attendance + Payroll",
                                "code": "time and attendance plus payroll",
                                "currency": "USD",
                                "price": 0.0
                            }
                        }
                    ]
                }
            ]
        }
    ],
    "links": {
        "self": "\/subscriptions\/customers?filter%5Baccount_id%5D=1&includes=plan"
    }
}
