{
    "data": [
        {
            "id": 19,
            "company_id": 3,
            "employee_id": 2,
            "workflow_id": 3111,
            "position": 1,
            "request_id": 10,
            "request_type": "leave_request",
            "status": "Pending",
            "old_status_value": null,
            "params": {
                "owner": {
                    "name": "Daryl Coleman Bishop",
                    "user_id": 5,
                    "employee_id": 2
                }
            },
            "created_at": "2021-03-24 21:31:41",
            "updated_at": "2021-03-24 21:34:58"
        }
    ]
}
