[
    {
        "id": 1,
        "account_id": 1,
        "email": "test+local.ralphperrywhite@example.test",
        "user_type": "owner",
        "first_name": "Ralph",
        "middle_name": null,
        "last_name": "White",
        "full_name": "Ralph White",
        "last_active_company_id": 1,
        "active": "active",
        "account": {
            "id": 1,
            "name": "RPW Holdings, Inc.",
            "email": "test+local.ralphperrywhite@example.test",
            "subscriptions": {
                "id": 4,
                "name": "time and attendance plus payroll"
            },
            "owner": {
                "id": 1,
                "account_id": 1,
                "email": "test+local.ralphperrywhite@example.test",
                "user_type": "owner",
                "first_name": "Ralph",
                "middle_name": null,
                "last_name": "White",
                "full_name": "Ralph White",
                "last_active_company_id": 1,
                "active": "active",
                "product_seats": [
                    {
                        "id": 4,
                        "name": "time and attendance plus payroll"
                    }
                ]
            },
            "companies": [
                {
                    "id": 1,
                    "name": "RPW Foods LLC",
                    "country": {
                        "id": 173,
                        "code": "PH",
                        "name": "Philippines"
                    },
                    "account_id": 1,
                    "email": "test+local.rpwfoodsllc@example.test",
                    "website": null,
                    "mobile_number": null,
                    "telephone_number": null,
                    "telephone_extension": null,
                    "fax_number": null
                },
                {
                    "id": 2,
                    "name": "PerryLife LLC",
                    "country": {
                        "id": 173,
                        "code": "PH",
                        "name": "Philippines"
                    },
                    "account_id": 1,
                    "logo": "",
                    "email": "test+local.perrylifellc@example.test",
                    "website": "",
                    "mobile_number": "",
                    "telephone_number": "",
                    "telephone_extension": "",
                    "fax_number": ""
                },
                {
                    "id": 3,
                    "name": "RP Solutions Inc",
                    "country": {
                        "id": 173,
                        "code": "PH",
                        "name": "Philippines"
                    },
                    "account_id": 1,
                    "logo": "",
                    "email": "test+local.rpsolutionsinc@example.test",
                    "website": "",
                    "mobile_number": "",
                    "telephone_number": "",
                    "telephone_extension": "",
                    "fax_number": ""
                }
            ]
        },
        "product_seats": [
            {
                "id": 4,
                "name": "time and attendance plus payroll"
            }
        ],
        "companies": [
            {
                "id": 1,
                "name": "RPW Foods LLC",
                "country": {
                    "id": 173,
                    "code": "PH",
                    "name": "Philippines"
                },
                "account_id": 1,
                "email": "test+local.rpwfoodsllc@example.test",
                "website": null,
                "mobile_number": null,
                "telephone_number": null,
                "telephone_extension": null,
                "fax_number": null,
                "employee_id": "",
                "employee_uid": ""
            },
            {
                "id": 2,
                "name": "PerryLife LLC",
                "country": {
                    "id": 173,
                    "code": "PH",
                    "name": "Philippines"
                },
                "account_id": 1,
                "logo": "",
                "email": "test+local.perrylifellc@example.test",
                "website": "",
                "mobile_number": "",
                "telephone_number": "",
                "telephone_extension": "",
                "fax_number": "",
                "employee_id": "",
                "employee_uid": ""
            },
            {
                "id": 3,
                "name": "RP Solutions Inc",
                "country": {
                    "id": 173,
                    "code": "PH",
                    "name": "Philippines"
                },
                "account_id": 1,
                "logo": "",
                "email": "test+local.rpsolutionsinc@example.test",
                "website": "",
                "mobile_number": "",
                "telephone_number": "",
                "telephone_extension": "",
                "fax_number": "",
                "employee_id": "",
                "employee_uid": ""
            }
        ],
        "license_unit_id": 1
    }
]
